Major	Alias1	Alias2	Alias3	Alias4	Alias5	Alias6	Alias7	Alias8	Alias9	Alias10
Accountancy	Accounting
American Studies
Analytics	Data Analytics
Anthropology
Architecture
Art
Biochemistry	Biochem
Bioengineering
Biology	Bio
Botany
Business	Business And Arts Management	Business Economics	Business Undeclared	Undeclared Business	Undecided Business	Small Business Management
Business Economics
Chemical Engineering
Chemistry
Classical Humanities
Classical Languages
Computer Science	Comp Sci	Computer Science And Games + Simulation	"Computer Science, Ims"	Cs	Cse
Computer Engineering
Critical Race and Ethnic Studies
Diplomacy and Global Politics
East Asian Languages & Cultures
Economics	Econ
Education Studies	Early Childhood Education	Special Education
Educational Leadership
Electrical Engineering		Ece
Engineering Management
English	English:Creative Writing	English:Literature	English Linguistics And Literature	Integrated English Language Arts Education	English—Professional Writing/Business—Undecided

Entrepreneurship
Environmental Earth Science	Environmental Science
Family Science
Finance	Finance & Accounting
French	French Education
General Engineering
Geography and Sustainable Development
Geology
German
Gerontology
History	Integrated History Education
Human Capital Management and Leadership	Human Capital	"Human Capital Mgmt And Leadership, Arts Management"			Hcml	Human Capital Management And Leadership
IMS
Individualized Studies
Information Systems and Analytics	Information Systems & Analytics	Information Systems And Analytics	Isa
Interdisciplinary Business Management
Italian Studies
Journalism
Kinesiology
"Latin American, Latino/a and Caribbean Studies"
Linguistics	Linguistics And Spanish
Manufacturing Engineering
Marketing	Marketing And Spanish
Mathematics	Math	Mathematics And Statistics	Integrated Mathematics	Middle Childhood Education Math & Science
Mechanical Engineering
Media and Culture
Microbiology
Music	Music Education	Music Performance	Vocal/General Music Education	Music Ed	Piano Performance
Nutrition
Philosophy
Physics
Political Science	Poli Sci
Professional Writing
Psychology	Psychology and Neuroscience	Psychological Science	"Psychology, Linguistics"
Public Administration
Public Health
Religion
"Russian, East European, & Eurasian Studies"
Social Justice Studies
Social Work
Sociology
Spanish	Spanish Edu
Sport Leadership and Management
Strategic Communication	Communication	Communication Design	Pre-Communication Design
Supply Chain and Operations Management	Supply Chain
Teacher Education
Theater	Theatre	"Theatre, History"
Urban and Regional Planning
"Women's, Gender, and Sexuality Studies"
Zoology	Zoology And Environmental Science	"Zoology, Anthropology"
Software Engineering	Se	Software Engineer
Speech Pathology	Speech Pathology And Audiology
Statistics
Undecided
Pre-med
